ARM GAS  /tmp/ccUBVLhJ.s 			page 1


   1              		.cpu cortex-m3
   2              		.arch armv7-m
   3              		.fpu softvfp
   4              		.eabi_attribute 20, 1
   5              		.eabi_attribute 21, 1
   6              		.eabi_attribute 23, 3
   7              		.eabi_attribute 24, 1
   8              		.eabi_attribute 25, 1
   9              		.eabi_attribute 26, 1
  10              		.eabi_attribute 30, 1
  11              		.eabi_attribute 34, 1
  12              		.eabi_attribute 18, 4
  13              		.file	"stm32f10x_it.c"
  14              		.text
  15              	.Ltext0:
  16              		.cfi_sections	.debug_frame
  17              		.section	.text.NMI_Handler,"ax",%progbits
  18              		.align	1
  19              		.global	NMI_Handler
  20              		.syntax unified
  21              		.thumb
  22              		.thumb_func
  24              	NMI_Handler:
  25              	.LFB65:
  26              		.file 1 "Src/stm32f10x_it.c"
   1:Src/stm32f10x_it.c **** /**
   2:Src/stm32f10x_it.c ****   ******************************************************************************
   3:Src/stm32f10x_it.c ****   * @file    Project/STM32F10x_StdPeriph_Template/stm32f10x_it.c 
   4:Src/stm32f10x_it.c ****   * @author  MCD Application Team
   5:Src/stm32f10x_it.c ****   * @version V3.5.0
   6:Src/stm32f10x_it.c ****   * @date    08-April-2011
   7:Src/stm32f10x_it.c ****   * @brief   Main Interrupt Service Routines.
   8:Src/stm32f10x_it.c ****   *          This file provides template for all exceptions handler and 
   9:Src/stm32f10x_it.c ****   *          peripherals interrupt service routine.
  10:Src/stm32f10x_it.c ****   ******************************************************************************
  11:Src/stm32f10x_it.c ****   * @attention
  12:Src/stm32f10x_it.c ****   *
  13:Src/stm32f10x_it.c ****   * THE PRESENT FIRMWARE WHICH IS FOR GUIDANCE ONLY AIMS AT PROVIDING CUSTOMERS
  14:Src/stm32f10x_it.c ****   * WITH CODING INFORMATION REGARDING THEIR PRODUCTS IN ORDER FOR THEM TO SAVE
  15:Src/stm32f10x_it.c ****   * TIME. AS A RESULT, STMICROELECTRONICS SHALL NOT BE HELD LIABLE FOR ANY
  16:Src/stm32f10x_it.c ****   * DIRECT, INDIRECT OR CONSEQUENTIAL DAMAGES WITH RESPECT TO ANY CLAIMS ARISING
  17:Src/stm32f10x_it.c ****   * FROM THE CONTENT OF SUCH FIRMWARE AND/OR THE USE MADE BY CUSTOMERS OF THE
  18:Src/stm32f10x_it.c ****   * CODING INFORMATION CONTAINED HEREIN IN CONNECTION WITH THEIR PRODUCTS.
  19:Src/stm32f10x_it.c ****   *
  20:Src/stm32f10x_it.c ****   * <h2><center>&copy; COPYRIGHT 2011 STMicroelectronics</center></h2>
  21:Src/stm32f10x_it.c ****   ******************************************************************************
  22:Src/stm32f10x_it.c ****   */
  23:Src/stm32f10x_it.c **** 
  24:Src/stm32f10x_it.c **** /* Includes ------------------------------------------------------------------*/
  25:Src/stm32f10x_it.c **** #include "stm32f10x_it.h"
  26:Src/stm32f10x_it.c **** 
  27:Src/stm32f10x_it.c **** /** @addtogroup STM32F10x_StdPeriph_Template
  28:Src/stm32f10x_it.c ****   * @{
  29:Src/stm32f10x_it.c ****   */
  30:Src/stm32f10x_it.c **** 
  31:Src/stm32f10x_it.c **** /* Private typedef -----------------------------------------------------------*/
  32:Src/stm32f10x_it.c **** /* Private define ------------------------------------------------------------*/
ARM GAS  /tmp/ccUBVLhJ.s 			page 2


  33:Src/stm32f10x_it.c **** /* Private macro -------------------------------------------------------------*/
  34:Src/stm32f10x_it.c **** /* Private variables ---------------------------------------------------------*/
  35:Src/stm32f10x_it.c **** /* Private function prototypes -----------------------------------------------*/
  36:Src/stm32f10x_it.c **** /* Private functions ---------------------------------------------------------*/
  37:Src/stm32f10x_it.c **** 
  38:Src/stm32f10x_it.c **** /******************************************************************************/
  39:Src/stm32f10x_it.c **** /*            Cortex-M3 Processor Exceptions Handlers                         */
  40:Src/stm32f10x_it.c **** /******************************************************************************/
  41:Src/stm32f10x_it.c **** 
  42:Src/stm32f10x_it.c **** /**
  43:Src/stm32f10x_it.c ****   * @brief  This function handles NMI exception.
  44:Src/stm32f10x_it.c ****   * @param  None
  45:Src/stm32f10x_it.c ****   * @retval None
  46:Src/stm32f10x_it.c ****   */
  47:Src/stm32f10x_it.c **** void NMI_Handler(void)
  48:Src/stm32f10x_it.c **** {
  27              		.loc 1 48 1 view -0
  28              		.cfi_startproc
  29              		@ args = 0, pretend = 0, frame = 0
  30              		@ frame_needed = 0, uses_anonymous_args = 0
  31              		@ link register save eliminated.
  49:Src/stm32f10x_it.c **** }
  32              		.loc 1 49 1 view .LVU1
  33 0000 7047     		bx	lr
  34              		.cfi_endproc
  35              	.LFE65:
  37              		.section	.text.HardFault_Handler,"ax",%progbits
  38              		.align	1
  39              		.global	HardFault_Handler
  40              		.syntax unified
  41              		.thumb
  42              		.thumb_func
  44              	HardFault_Handler:
  45              	.LFB66:
  50:Src/stm32f10x_it.c **** 
  51:Src/stm32f10x_it.c **** /**
  52:Src/stm32f10x_it.c ****   * @brief  This function handles Hard Fault exception.
  53:Src/stm32f10x_it.c ****   * @param  None
  54:Src/stm32f10x_it.c ****   * @retval None
  55:Src/stm32f10x_it.c ****   */
  56:Src/stm32f10x_it.c **** void HardFault_Handler(void)
  57:Src/stm32f10x_it.c **** {
  46              		.loc 1 57 1 view -0
  47              		.cfi_startproc
  48              		@ Volatile: function does not return.
  49              		@ args = 0, pretend = 0, frame = 0
  50              		@ frame_needed = 0, uses_anonymous_args = 0
  51              		@ link register save eliminated.
  52              	.L3:
  58:Src/stm32f10x_it.c ****   /* Go to infinite loop when Hard Fault exception occurs */
  59:Src/stm32f10x_it.c ****   while (1)
  53              		.loc 1 59 3 discriminator 1 view .LVU3
  60:Src/stm32f10x_it.c ****   {
  61:Src/stm32f10x_it.c ****   }
  54              		.loc 1 61 3 discriminator 1 view .LVU4
  59:Src/stm32f10x_it.c ****   {
  55              		.loc 1 59 9 discriminator 1 view .LVU5
ARM GAS  /tmp/ccUBVLhJ.s 			page 3


  56 0000 FEE7     		b	.L3
  57              		.cfi_endproc
  58              	.LFE66:
  60              		.section	.text.MemManage_Handler,"ax",%progbits
  61              		.align	1
  62              		.global	MemManage_Handler
  63              		.syntax unified
  64              		.thumb
  65              		.thumb_func
  67              	MemManage_Handler:
  68              	.LFB67:
  62:Src/stm32f10x_it.c **** }
  63:Src/stm32f10x_it.c **** 
  64:Src/stm32f10x_it.c **** /**
  65:Src/stm32f10x_it.c ****   * @brief  This function handles Memory Manage exception.
  66:Src/stm32f10x_it.c ****   * @param  None
  67:Src/stm32f10x_it.c ****   * @retval None
  68:Src/stm32f10x_it.c ****   */
  69:Src/stm32f10x_it.c **** void MemManage_Handler(void)
  70:Src/stm32f10x_it.c **** {
  69              		.loc 1 70 1 view -0
  70              		.cfi_startproc
  71              		@ Volatile: function does not return.
  72              		@ args = 0, pretend = 0, frame = 0
  73              		@ frame_needed = 0, uses_anonymous_args = 0
  74              		@ link register save eliminated.
  75              	.L5:
  71:Src/stm32f10x_it.c ****   /* Go to infinite loop when Memory Manage exception occurs */
  72:Src/stm32f10x_it.c ****   while (1)
  76              		.loc 1 72 3 discriminator 1 view .LVU7
  73:Src/stm32f10x_it.c ****   {
  74:Src/stm32f10x_it.c ****   }
  77              		.loc 1 74 3 discriminator 1 view .LVU8
  72:Src/stm32f10x_it.c ****   {
  78              		.loc 1 72 9 discriminator 1 view .LVU9
  79 0000 FEE7     		b	.L5
  80              		.cfi_endproc
  81              	.LFE67:
  83              		.section	.text.BusFault_Handler,"ax",%progbits
  84              		.align	1
  85              		.global	BusFault_Handler
  86              		.syntax unified
  87              		.thumb
  88              		.thumb_func
  90              	BusFault_Handler:
  91              	.LFB68:
  75:Src/stm32f10x_it.c **** }
  76:Src/stm32f10x_it.c **** 
  77:Src/stm32f10x_it.c **** /**
  78:Src/stm32f10x_it.c ****   * @brief  This function handles Bus Fault exception.
  79:Src/stm32f10x_it.c ****   * @param  None
  80:Src/stm32f10x_it.c ****   * @retval None
  81:Src/stm32f10x_it.c ****   */
  82:Src/stm32f10x_it.c **** void BusFault_Handler(void)
  83:Src/stm32f10x_it.c **** {
  92              		.loc 1 83 1 view -0
  93              		.cfi_startproc
ARM GAS  /tmp/ccUBVLhJ.s 			page 4


  94              		@ Volatile: function does not return.
  95              		@ args = 0, pretend = 0, frame = 0
  96              		@ frame_needed = 0, uses_anonymous_args = 0
  97              		@ link register save eliminated.
  98              	.L7:
  84:Src/stm32f10x_it.c ****   /* Go to infinite loop when Bus Fault exception occurs */
  85:Src/stm32f10x_it.c ****   while (1)
  99              		.loc 1 85 3 discriminator 1 view .LVU11
  86:Src/stm32f10x_it.c ****   {
  87:Src/stm32f10x_it.c ****   }
 100              		.loc 1 87 3 discriminator 1 view .LVU12
  85:Src/stm32f10x_it.c ****   {
 101              		.loc 1 85 9 discriminator 1 view .LVU13
 102 0000 FEE7     		b	.L7
 103              		.cfi_endproc
 104              	.LFE68:
 106              		.section	.text.UsageFault_Handler,"ax",%progbits
 107              		.align	1
 108              		.global	UsageFault_Handler
 109              		.syntax unified
 110              		.thumb
 111              		.thumb_func
 113              	UsageFault_Handler:
 114              	.LFB69:
  88:Src/stm32f10x_it.c **** }
  89:Src/stm32f10x_it.c **** 
  90:Src/stm32f10x_it.c **** /**
  91:Src/stm32f10x_it.c ****   * @brief  This function handles Usage Fault exception.
  92:Src/stm32f10x_it.c ****   * @param  None
  93:Src/stm32f10x_it.c ****   * @retval None
  94:Src/stm32f10x_it.c ****   */
  95:Src/stm32f10x_it.c **** void UsageFault_Handler(void)
  96:Src/stm32f10x_it.c **** {
 115              		.loc 1 96 1 view -0
 116              		.cfi_startproc
 117              		@ Volatile: function does not return.
 118              		@ args = 0, pretend = 0, frame = 0
 119              		@ frame_needed = 0, uses_anonymous_args = 0
 120              		@ link register save eliminated.
 121              	.L9:
  97:Src/stm32f10x_it.c ****   /* Go to infinite loop when Usage Fault exception occurs */
  98:Src/stm32f10x_it.c ****   while (1)
 122              		.loc 1 98 3 discriminator 1 view .LVU15
  99:Src/stm32f10x_it.c ****   {
 100:Src/stm32f10x_it.c ****   }
 123              		.loc 1 100 3 discriminator 1 view .LVU16
  98:Src/stm32f10x_it.c ****   {
 124              		.loc 1 98 9 discriminator 1 view .LVU17
 125 0000 FEE7     		b	.L9
 126              		.cfi_endproc
 127              	.LFE69:
 129              		.section	.text.SVC_Handler,"ax",%progbits
 130              		.align	1
 131              		.global	SVC_Handler
 132              		.syntax unified
 133              		.thumb
 134              		.thumb_func
ARM GAS  /tmp/ccUBVLhJ.s 			page 5


 136              	SVC_Handler:
 137              	.LFB70:
 101:Src/stm32f10x_it.c **** }
 102:Src/stm32f10x_it.c **** 
 103:Src/stm32f10x_it.c **** /**
 104:Src/stm32f10x_it.c ****   * @brief  This function handles SVCall exception.
 105:Src/stm32f10x_it.c ****   * @param  None
 106:Src/stm32f10x_it.c ****   * @retval None
 107:Src/stm32f10x_it.c ****   */
 108:Src/stm32f10x_it.c **** void SVC_Handler(void)
 109:Src/stm32f10x_it.c **** {
 138              		.loc 1 109 1 view -0
 139              		.cfi_startproc
 140              		@ args = 0, pretend = 0, frame = 0
 141              		@ frame_needed = 0, uses_anonymous_args = 0
 142              		@ link register save eliminated.
 110:Src/stm32f10x_it.c **** }
 143              		.loc 1 110 1 view .LVU19
 144 0000 7047     		bx	lr
 145              		.cfi_endproc
 146              	.LFE70:
 148              		.section	.text.DebugMon_Handler,"ax",%progbits
 149              		.align	1
 150              		.global	DebugMon_Handler
 151              		.syntax unified
 152              		.thumb
 153              		.thumb_func
 155              	DebugMon_Handler:
 156              	.LFB71:
 111:Src/stm32f10x_it.c **** 
 112:Src/stm32f10x_it.c **** /**
 113:Src/stm32f10x_it.c ****   * @brief  This function handles Debug Monitor exception.
 114:Src/stm32f10x_it.c ****   * @param  None
 115:Src/stm32f10x_it.c ****   * @retval None
 116:Src/stm32f10x_it.c ****   */
 117:Src/stm32f10x_it.c **** void DebugMon_Handler(void)
 118:Src/stm32f10x_it.c **** {
 157              		.loc 1 118 1 view -0
 158              		.cfi_startproc
 159              		@ args = 0, pretend = 0, frame = 0
 160              		@ frame_needed = 0, uses_anonymous_args = 0
 161              		@ link register save eliminated.
 119:Src/stm32f10x_it.c **** }
 162              		.loc 1 119 1 view .LVU21
 163 0000 7047     		bx	lr
 164              		.cfi_endproc
 165              	.LFE71:
 167              		.section	.text.PendSV_Handler,"ax",%progbits
 168              		.align	1
 169              		.global	PendSV_Handler
 170              		.syntax unified
 171              		.thumb
 172              		.thumb_func
 174              	PendSV_Handler:
 175              	.LFB72:
 120:Src/stm32f10x_it.c **** 
 121:Src/stm32f10x_it.c **** /**
ARM GAS  /tmp/ccUBVLhJ.s 			page 6


 122:Src/stm32f10x_it.c ****   * @brief  This function handles PendSVC exception.
 123:Src/stm32f10x_it.c ****   * @param  None
 124:Src/stm32f10x_it.c ****   * @retval None
 125:Src/stm32f10x_it.c ****   */
 126:Src/stm32f10x_it.c **** void PendSV_Handler(void)
 127:Src/stm32f10x_it.c **** {
 176              		.loc 1 127 1 view -0
 177              		.cfi_startproc
 178              		@ args = 0, pretend = 0, frame = 0
 179              		@ frame_needed = 0, uses_anonymous_args = 0
 180              		@ link register save eliminated.
 128:Src/stm32f10x_it.c **** }
 181              		.loc 1 128 1 view .LVU23
 182 0000 7047     		bx	lr
 183              		.cfi_endproc
 184              	.LFE72:
 186              		.section	.text.SysTick_Handler,"ax",%progbits
 187              		.align	1
 188              		.global	SysTick_Handler
 189              		.syntax unified
 190              		.thumb
 191              		.thumb_func
 193              	SysTick_Handler:
 194              	.LFB73:
 129:Src/stm32f10x_it.c **** 
 130:Src/stm32f10x_it.c **** /**
 131:Src/stm32f10x_it.c ****   * @brief  This function handles SysTick Handler.
 132:Src/stm32f10x_it.c ****   * @param  None
 133:Src/stm32f10x_it.c ****   * @retval None
 134:Src/stm32f10x_it.c ****   */
 135:Src/stm32f10x_it.c **** void SysTick_Handler(void)
 136:Src/stm32f10x_it.c **** {
 195              		.loc 1 136 1 view -0
 196              		.cfi_startproc
 197              		@ args = 0, pretend = 0, frame = 0
 198              		@ frame_needed = 0, uses_anonymous_args = 0
 199              		@ link register save eliminated.
 137:Src/stm32f10x_it.c **** }
 200              		.loc 1 137 1 view .LVU25
 201 0000 7047     		bx	lr
 202              		.cfi_endproc
 203              	.LFE73:
 205              		.text
 206              	.Letext0:
ARM GAS  /tmp/ccUBVLhJ.s 			page 7


DEFINED SYMBOLS
                            *ABS*:0000000000000000 stm32f10x_it.c
     /tmp/ccUBVLhJ.s:18     .text.NMI_Handler:0000000000000000 $t
     /tmp/ccUBVLhJ.s:24     .text.NMI_Handler:0000000000000000 NMI_Handler
     /tmp/ccUBVLhJ.s:38     .text.HardFault_Handler:0000000000000000 $t
     /tmp/ccUBVLhJ.s:44     .text.HardFault_Handler:0000000000000000 HardFault_Handler
     /tmp/ccUBVLhJ.s:61     .text.MemManage_Handler:0000000000000000 $t
     /tmp/ccUBVLhJ.s:67     .text.MemManage_Handler:0000000000000000 MemManage_Handler
     /tmp/ccUBVLhJ.s:84     .text.BusFault_Handler:0000000000000000 $t
     /tmp/ccUBVLhJ.s:90     .text.BusFault_Handler:0000000000000000 BusFault_Handler
     /tmp/ccUBVLhJ.s:107    .text.UsageFault_Handler:0000000000000000 $t
     /tmp/ccUBVLhJ.s:113    .text.UsageFault_Handler:0000000000000000 UsageFault_Handler
     /tmp/ccUBVLhJ.s:130    .text.SVC_Handler:0000000000000000 $t
     /tmp/ccUBVLhJ.s:136    .text.SVC_Handler:0000000000000000 SVC_Handler
     /tmp/ccUBVLhJ.s:149    .text.DebugMon_Handler:0000000000000000 $t
     /tmp/ccUBVLhJ.s:155    .text.DebugMon_Handler:0000000000000000 DebugMon_Handler
     /tmp/ccUBVLhJ.s:168    .text.PendSV_Handler:0000000000000000 $t
     /tmp/ccUBVLhJ.s:174    .text.PendSV_Handler:0000000000000000 PendSV_Handler
     /tmp/ccUBVLhJ.s:187    .text.SysTick_Handler:0000000000000000 $t
     /tmp/ccUBVLhJ.s:193    .text.SysTick_Handler:0000000000000000 SysTick_Handler

NO UNDEFINED SYMBOLS
